{
"SHIFTGRID": [
	{
		"SHIFT_TYPE_ID" : 0,
		"SUB_SYSTEM" : "pr1",
		"SHIFT_TYPE" : "sType0",
		"ORDER_NUM" : 1,
		"START_HOUR" : "0001-01-01T08:30:00Z",
		"END_HOUR" : "0001-01-02T08:30:00Z"
	},
	{
		"SHIFT_TYPE_ID" : 1,
		"SUB_SYSTEM" : "pr2",
		"SHIFT_TYPE" : "sType1",
		"ORDER_NUM" : 2,
		"START_HOUR" : "0001-01-01T08:30:00Z",
		"END_HOUR" : "0001-01-02T08:30:00Z"
	},
	{
		"SHIFT_TYPE_ID" : 2,
		"SUB_SYSTEM" : "pr3",
		"SHIFT_TYPE" : "sType2",
		"ORDER_NUM" : 3,
		"START_HOUR" : "0001-01-01T08:30:00Z",
		"END_HOUR" : "0001-01-02T08:30:00Z"
	},
	{
		"SHIFT_TYPE_ID" : 3,
		"SUB_SYSTEM" : "pr2",
		"SHIFT_TYPE" : "sType3",
		"ORDER_NUM" : 4,
		"START_HOUR" : "0001-01-01T08:30:00Z",
		"END_HOUR" : "0001-01-02T08:30:00Z"
	},
	{
		"SHIFT_TYPE_ID" : 4,
		"SUB_SYSTEM" : "pr1",
		"SHIFT_TYPE" : "sType4",
		"ORDER_NUM" : 5,
		"START_HOUR" : "0001-01-01T08:30:00Z",
		"END_HOUR" : "0001-01-02T08:30:00Z"
	},
	{
		"SHIFT_TYPE_ID" : 5,
		"SUB_SYSTEM" : "pr3",
		"SHIFT_TYPE" : "sType5",
		"ORDER_NUM" : 6,
		"START_HOUR" : "0001-01-01T08:30:00Z",
		"END_HOUR" : "0001-01-02T08:30:00Z"
	}
]}
